Data Processing & Visualization
…
install.packages('ggplot2movies')
library(ggplot2movies)

Exercise 1

Using the movies data set, perform each of the following actions separately.

Exercise 1a

Use mutate to create a centered version of the rating variable. A centered variable is one whose mean has been subtracted from it. The process will take the following form:

data %>% 
  mutate(newvar = '?')

# A tibble: 58,788 x 25
                      title  year length budget rating votes    r1    r2    r3    r4    r5    r6    r7    r8    r9   r10  mpaa Action Animation Comedy Drama Documentary Romance Short   ratingCen
                      <chr> <int>  <int>  <int>  <dbl> <int> <dbl> <dbl> <dbl> <dbl> <dbl> <dbl> <dbl> <dbl> <dbl> <dbl> <chr>  <int>     <int>  <int> <int>       <int>   <int> <int>       <dbl>
 1                        $  1971    121     NA    6.4   348   4.5   4.5   4.5   4.5  14.5  24.5  24.5  14.5   4.5   4.5            0         0      1     1           0       0     0  0.46714976
 2        $1000 a Touchdown  1939     71     NA    6.0    20   0.0  14.5   4.5  24.5  14.5  14.5  14.5   4.5   4.5  14.5            0         0      1     0           0       0     0  0.06714976
 3   $21 a Day Once a Month  1941      7     NA    8.2     5   0.0   0.0   0.0   0.0   0.0  24.5   0.0  44.5  24.5  24.5            0         1      0     0           0       0     1  2.26714976
 4                  $40,000  1996     70     NA    8.2     6  14.5   0.0   0.0   0.0   0.0   0.0   0.0   0.0  34.5  45.5            0         0      1     0           0       0     0  2.26714976
 5 $50,000 Climax Show, The  1975     71     NA    3.4    17  24.5   4.5   0.0  14.5  14.5   4.5   0.0   0.0   0.0  24.5            0         0      0     0           0       0     0 -2.53285024
 6                    $pent  2000     91     NA    4.3    45   4.5   4.5   4.5  14.5  14.5  14.5   4.5   4.5  14.5  14.5            0         0      0     1           0       0     0 -1.63285024
 7                  $windle  2002     93     NA    5.3   200   4.5   0.0   4.5   4.5  24.5  24.5  14.5   4.5   4.5  14.5     R      1         0      0     1           0       0     0 -0.63285024
 8                     '15'  2002     25     NA    6.7    24   4.5   4.5   4.5   4.5   4.5  14.5  14.5  14.5   4.5  14.5            0         0      0     0           1       0     1  0.76714976
 9                      '38  1987     97     NA    6.6    18   4.5   4.5   4.5   0.0   0.0   0.0  34.5  14.5   4.5  24.5            0         0      0     1           0       0     0  0.66714976
10                  '49-'17  1917     61     NA    6.0    51   4.5   0.0   4.5   4.5   4.5  44.5  14.5   4.5   4.5   4.5            0         0      0     0           0       0     0  0.06714976
# ... with 58,778 more rows

Exercise 1b

Use filter to create a new data frame that has only movies from the years 2000 and beyond. Use the greater than or equal operator >=.

# A tibble: 10,789 x 24
                                title  year length budget rating votes    r1    r2    r3    r4    r5    r6    r7    r8    r9   r10  mpaa Action Animation Comedy Drama Documentary Romance Short
                                <chr> <int>  <int>  <int>  <dbl> <int> <dbl> <dbl> <dbl> <dbl> <dbl> <dbl> <dbl> <dbl> <dbl> <dbl> <chr>  <int>     <int>  <int> <int>       <int>   <int> <int>
 1                              $pent  2000     91     NA    4.3    45   4.5   4.5   4.5  14.5  14.5  14.5   4.5   4.5  14.5  14.5            0         0      0     1           0       0     0
 2                            $windle  2002     93     NA    5.3   200   4.5   0.0   4.5   4.5  24.5  24.5  14.5   4.5   4.5  14.5     R      1         0      0     1           0       0     0
 3                               '15'  2002     25     NA    6.7    24   4.5   4.5   4.5   4.5   4.5  14.5  14.5  14.5   4.5  14.5            0         0      0     0           1       0     1
 4                            'R Xmas  2001     83     NA    4.9   288  14.5   4.5   4.5   4.5  14.5  24.5  14.5   4.5   4.5   4.5     R      0         0      0     1           0       0     0
 5                         (A)Torzija  2002     13     NA    7.2    71   4.5   0.0   4.5   4.5   4.5   4.5  14.5  24.5  14.5  24.5            0         0      0     1           0       0     1
 6                       (Entre nous)  2002     82     NA    4.8    22  14.5   4.5   4.5  14.5  24.5  14.5   4.5   4.5   0.0   0.0            0         0      0     1           0       0     0
 7                        (Paris: XY)  2001     80     NA    1.4     6  14.5   0.0  14.5   0.0  14.5  14.5  14.5  14.5   0.0   0.0            0         0      0     1           0       0     0
 8 (T)Raumschiff Surprise - Periode 1  2004     87     NA    5.6  1275  14.5   4.5   4.5   4.5  14.5  14.5  14.5  14.5   4.5  14.5            0         0      1     0           0       0     0
 9                   *Corpus Callosum  2002     92     NA    4.9    36  24.5  14.5   4.5   4.5   0.0   4.5  14.5   4.5   4.5  14.5            0         0      0     1           0       0     0
10                            ...Lost  2000      5     NA    6.2    13   4.5   0.0   0.0   4.5  24.5  34.5  24.5   4.5   0.0   0.0            0         0      0     0           0       0     1
# ... with 10,779 more rows

Exercise 1c

Use select to create a new data frame that only has the title, year, budget, length, rating and votes variables. There are at least 3 ways to do this.

# A tibble: 58,788 x 6
                      title  year budget length rating votes
                      <chr> <int>  <int>  <int>  <dbl> <int>
 1                        $  1971     NA    121    6.4   348
 2        $1000 a Touchdown  1939     NA     71    6.0    20
 3   $21 a Day Once a Month  1941     NA      7    8.2     5
 4                  $40,000  1996     NA     70    8.2     6
 5 $50,000 Climax Show, The  1975     NA     71    3.4    17
 6                    $pent  2000     NA     91    4.3    45
 7                  $windle  2002     NA     93    5.3   200
 8                     '15'  2002     NA     25    6.7    24
 9                      '38  1987     NA     97    6.6    18
10                  '49-'17  1917     NA     61    6.0    51
# ... with 58,778 more rows

# A tibble: 58,788 x 6
                      title  year length budget rating votes
                      <chr> <int>  <int>  <int>  <dbl> <int>
 1                        $  1971    121     NA    6.4   348
 2        $1000 a Touchdown  1939     71     NA    6.0    20
 3   $21 a Day Once a Month  1941      7     NA    8.2     5
 4                  $40,000  1996     70     NA    8.2     6
 5 $50,000 Climax Show, The  1975     71     NA    3.4    17
 6                    $pent  2000     91     NA    4.3    45
 7                  $windle  2002     93     NA    5.3   200
 8                     '15'  2002     25     NA    6.7    24
 9                      '38  1987     97     NA    6.6    18
10                  '49-'17  1917     61     NA    6.0    51
# ... with 58,778 more rows

# A tibble: 58,788 x 6
                      title  year length budget rating votes
                      <chr> <int>  <int>  <int>  <dbl> <int>
 1                        $  1971    121     NA    6.4   348
 2        $1000 a Touchdown  1939     71     NA    6.0    20
 3   $21 a Day Once a Month  1941      7     NA    8.2     5
 4                  $40,000  1996     70     NA    8.2     6
 5 $50,000 Climax Show, The  1975     71     NA    3.4    17
 6                    $pent  2000     91     NA    4.3    45
 7                  $windle  2002     93     NA    5.3   200
 8                     '15'  2002     25     NA    6.7    24
 9                      '38  1987     97     NA    6.6    18
10                  '49-'17  1917     61     NA    6.0    51
# ... with 58,778 more rows
…
