Data Processing & Visualization
…
[[3]]
[1] 24

The map functions take some getting used to, and in my experience they are typically slower than the apply functions, sometimes notably so. However they allow you stay within the tidy realm, which has its own benefits, and have more control over the nature of the output23, which is especially important in reproducibility, package development, producing production-level code, etc. The key idea is that the map functions will always return something the same length as the input given to it.

The purrr functions want a list or vector, i.e. they don’t work with data.frame objects like we’ve done with mutate and summarize except in the sense that data.frames are lists.

## mtcars %>% 
##   map(scale)    # returns a list, not shown

mtcars %>% 
  map_df(scale) # returns a df

# A tibble: 32 x 11
      mpg    cyl    disp     hp   drat       wt   qsec     vs     am   gear   carb
    <dbl>  <dbl>   <dbl>  <dbl>  <dbl>    <dbl>  <dbl>  <dbl>  <dbl>  <dbl>  <dbl>
 1  0.151 -0.105 -0.571  -0.535  0.568 -0.610   -0.777 -0.868  1.19   0.424  0.735
 2  0.151 -0.105 -0.571  -0.535  0.568 -0.350   -0.464 -0.868  1.19   0.424  0.735
 3  0.450 -1.22  -0.990  -0.783  0.474 -0.917    0.426  1.12   1.19   0.424 -1.12 
 4  0.217 -0.105  0.220  -0.535 -0.966 -0.00230  0.890  1.12  -0.814 -0.932 -1.12 
 5 -0.231  1.01   1.04    0.413 -0.835  0.228   -0.464 -0.868 -0.814 -0.932 -0.503
 6 -0.330 -0.105 -0.0462 -0.608 -1.56   0.248    1.33   1.12  -0.814 -0.932 -1.12 
 7 -0.961  1.01   1.04    1.43  -0.723  0.361   -1.12  -0.868 -0.814 -0.932  0.735
 8  0.715 -1.22  -0.678  -1.24   0.175 -0.0278   1.20   1.12  -0.814  0.424 -0.503
 9  0.450 -1.22  -0.726  -0.754  0.605 -0.0687   2.83   1.12  -0.814  0.424 -0.503
10 -0.148 -0.105 -0.509  -0.345  0.605  0.228    0.253  1.12  -0.814  0.424  0.735
# ... with 22 more rows

mtcars %>% 
  map_dbl(sum)  # returns a numeric (double) vector of column sums

     mpg      cyl     disp       hp     drat       wt     qsec       vs       am     gear     carb 
 642.900  198.000 7383.100 4694.000  115.090  102.952  571.160   14.000   13.000  118.000   90.000 

diamonds %>% 
  map_at(c('carat', 'depth', 'price'), 
         function(x) as.integer(x > median(x))) %>% 
  as_data_frame()

# A tibble: 53,940 x 10
   carat cut       color clarity depth table price     x     y     z
   <int> <ord>     <ord> <ord>   <int> <dbl> <int> <dbl> <dbl> <dbl>
 1     0 Ideal     E     SI2         0    55     0  3.95  3.98  2.43
 2     0 Premium   E     SI1         0    61     0  3.89  3.84  2.31
 3     0 Good      E     VS1         0    65     0  4.05  4.07  2.31
 4     0 Premium   I     VS2         1    58     0  4.2   4.23  2.63
 5     0 Good      J     SI2         1    58     0  4.34  4.35  2.75
 6     0 Very Good J     VVS2        1    57     0  3.94  3.96  2.48
 7     0 Very Good I     VVS1        1    57     0  3.95  3.98  2.47
 8     0 Very Good H     SI1         1    55     0  4.07  4.11  2.53
 9     0 Fair      E     VS2         1    61     0  3.87  3.78  2.49
10     0 Very Good H     VS1         0    61     0  4     4.05  2.39
# ... with 53,930 more rows
…
mtcars2 = as.matrix(mtcars)
mtcars2[sample(1:length(mtcars2),50)] = NA
mtcars2 = as_data_frame(mtcars2)

mtcars2 = mtcars2 %>% 
  mutate(newvar = pmap(., ~ data.frame(
    N = sum(!is.na(c(...))),
    Miss = sum(is.na(c(...)))
  )))

Now check out the list column.

mtcars2

# A tibble: 32 x 12
   mpg   cyl   disp  hp    drat  wt    qsec  vs    am    gear  carb  newvar              
   <chr> <chr> <chr> <chr> <chr> <chr> <chr> <chr> <chr> <chr> <chr> <list>              
 1 21.0  6     160.0 110   3.90  2.620 16.46 0     1     4     <NA>  <data.frame [1 × 2]>
 2 21.0  6     160.0 <NA>  3.90  2.875 17.02 0     1     4     4     <data.frame [1 × 2]>
 3 <NA>  <NA>  108.0 " 93" 3.85  2.320 18.61 1     1     4     <NA>  <data.frame [1 × 2]>
 4 21.4  6     <NA>  110   <NA>  3.215 19.44 1     0     3     1     <data.frame [1 × 2]>
 5 18.7  8     <NA>  175   3.15  3.440 17.02 0     0     <NA>  2     <data.frame [1 × 2]>
 6 18.1  6     225.0 105   2.76  3.460 <NA>  1     0     3     1     <data.frame [1 × 2]>
 7 <NA>  8     360.0 <NA>  <NA>  3.570 <NA>  0     0     <NA>  4     <data.frame [1 × 2]>
 8 24.4  4     146.7 " 62" 3.69  3.190 20.00 <NA>  <NA>  4     2     <data.frame [1 × 2]>
 9 22.8  <NA>  140.8 " 95" 3.92  3.150 22.90 1     0     4     2     <data.frame [1 × 2]>
10 19.2  6     167.6 123   3.92  <NA>  18.30 1     0     4     4     <data.frame [1 × 2]>
# ... with 22 more rows
…
[[2]]
   N Miss
1 10    1

[[3]]
  N Miss
1 8    3

Unnest it with the tidyr function.

mtcars2 %>% 
  unnest(newvar)

# A tibble: 32 x 13
   mpg   cyl   disp  hp    drat  wt    qsec  vs    am    gear  carb      N  Miss
   <chr> <chr> <chr> <chr> <chr> <chr> <chr> <chr> <chr> <chr> <chr> <int> <int>
 1 21.0  6     160.0 110   3.90  2.620 16.46 0     1     4     <NA>     10     1
 2 21.0  6     160.0 <NA>  3.90  2.875 17.02 0     1     4     4        10     1
 3 <NA>  <NA>  108.0 " 93" 3.85  2.320 18.61 1     1     4     <NA>      8     3
 4 21.4  6     <NA>  110   <NA>  3.215 19.44 1     0     3     1         9     2
 5 18.7  8     <NA>  175   3.15  3.440 17.02 0     0     <NA>  2         9     2
 6 18.1  6     225.0 105   2.76  3.460 <NA>  1     0     3     1        10     1
 7 <NA>  8     360.0 <NA>  <NA>  3.570 <NA>  0     0     <NA>  4         6     5
 8 24.4  4     146.7 " 62" 3.69  3.190 20.00 <NA>  <NA>  4     2         9     2
 9 22.8  <NA>  140.8 " 95" 3.92  3.150 22.90 1     0     4     2        10     1
10 19.2  6     167.6 123   3.92  <NA>  18.30 1     0     4     4        10     1
# ... with 22 more rows
…
