Data Processing & Visualization
…
In any case, with our function at the ready, we can now do the things we want to as needed:

good_mileage(mpg_cutoff = 40)

# A tibble: 1 x 11
  manufacturer model displ  year   cyl trans      drv     cty   hwy fl    class  
  <chr>        <chr> <dbl> <int> <int> <chr>      <chr> <int> <int> <chr> <chr>  
1 volkswagen   jetta   1.9  1999     4 manual(m5) f        33    44 d     compact

good_mileage(cylinder = 8, mpg_cutoff = 15, displ_low = F, cls='suv')

# A tibble: 34 x 11
   manufacturer model              displ  year   cyl trans    drv     cty   hwy fl    class
   <chr>        <chr>              <dbl> <int> <int> <chr>    <chr> <int> <int> <chr> <chr>
 1 chevrolet    c1500 suburban 2wd   5.3  2008     8 auto(l4) r        14    20 r     suv  
 2 chevrolet    c1500 suburban 2wd   5.3  2008     8 auto(l4) r        11    15 e     suv  
 3 chevrolet    c1500 suburban 2wd   5.3  2008     8 auto(l4) r        14    20 r     suv  
 4 chevrolet    c1500 suburban 2wd   5.7  1999     8 auto(l4) r        13    17 r     suv  
 5 chevrolet    c1500 suburban 2wd   6    2008     8 auto(l4) r        12    17 r     suv  
 6 chevrolet    k1500 tahoe 4wd      5.3  2008     8 auto(l4) 4        14    19 r     suv  
 7 chevrolet    k1500 tahoe 4wd      5.7  1999     8 auto(l4) 4        11    15 r     suv  
 8 chevrolet    k1500 tahoe 4wd      6.5  1999     8 auto(l4) 4        14    17 d     suv  
 9 dodge        durango 4wd          4.7  2008     8 auto(l5) 4        13    17 r     suv  
10 dodge        durango 4wd          4.7  2008     8 auto(l5) 4        13    17 r     suv  
# ... with 24 more rows
…
apply(mtcars, 2, sd)
apply(mtcars, 2, function(x) x/2)

The difference between the two is that for the latter, our function didn’t have to be a named object already available. We created a function on the fly just to serve a specific purpose. A function doesn’t exist that just does nothing but divide by two, but since it is simple we just created it as needed.

To further illustrate this, we’ll create a robust standardization function that uses the median and median absolute deviation rather than the mean and standard deviation.

# some variables have a mad = 0, and so return Inf (x/0) or NaN (0/0)
# apply(mtcars, 2, function(x) (x - median(x))/mad(x)) %>% 
#   head()

mtcars %>%
  map_df(function(x) (x - median(x))/mad(x))

# A tibble: 32 x 11
       mpg    cyl   disp     hp     drat     wt   qsec    vs    am   gear   carb
     <dbl>  <dbl>  <dbl>  <dbl>    <dbl>  <dbl>  <dbl> <dbl> <dbl>  <dbl>  <dbl>
 1  0.333   0     -0.258 -0.169  0.291   -0.919 -0.883   NaN   Inf  0      1.35 
 2  0.333   0     -0.258 -0.169  0.291   -0.587 -0.487   NaN   Inf  0      1.35 
 3  0.665  -0.674 -0.629 -0.389  0.220   -1.31   0.636   Inf   Inf  0     -0.674
 4  0.407   0      0.439 -0.169 -0.873   -0.143  1.22    Inf   NaN -0.674 -0.674
 5 -0.0924  0.674  1.17   0.674 -0.774    0.150 -0.487   NaN   NaN -0.674  0    
 6 -0.203   0      0.204 -0.233 -1.33     0.176  1.77    Inf   NaN -0.674 -0.674
 7 -0.905   0.674  1.17   1.58  -0.689    0.319 -1.32    NaN   NaN -0.674  1.35 
 8  0.961  -0.674 -0.353 -0.791 -0.00710 -0.176  1.62    Inf   NaN  0      0    
 9  0.665  -0.674 -0.395 -0.363  0.319   -0.228  3.67    Inf   NaN  0      0    
10  0       0     -0.204  0      0.319    0.150  0.417   Inf   NaN  0      1.35 
# ... with 22 more rows
…
