Model Exploration | Data Processing & Visualization
…
library(recipes)

nafta = happy %>% 
  filter(country %in% c('United States', 'Canada', 'Mexico'))

dummy = nafta  %>% 
  recipe(~ country) %>% 
  step_dummy(country, one_hot = TRUE) # make variables for all factor levels

prep(dummy) %>% 
  bake(nafta) %>% 
  print(n = 20)

# A tibble: 39 x 3
   country_Canada country_Mexico country_United.States
            <dbl>          <dbl>                 <dbl>
 1              1              0                     0
 2              1              0                     0
 3              1              0                     0
 4              1              0                     0
 5              1              0                     0
 6              1              0                     0
 7              1              0                     0
 8              1              0                     0
 9              1              0                     0
10              1              0                     0
11              1              0                     0
12              1              0                     0
13              1              0                     0
14              0              1                     0
15              0              1                     0
16              0              1                     0
17              0              1                     0
18              0              1                     0
19              0              1                     0
20              0              1                     0
# … with 19 more rows
…
